Analysis of 2018 bootcamp survey
…
# Or choose data from respondents
#survey <- read_csv(data_file_in)

survey

## # A tibble: 50 x 7
##    Timestamp           R_exp   Banjo Psych_age_yrs Sleep_hrs Fav_date  
##    <dttm>              <chr>   <int>         <int>     <dbl> <date>    
##  1 2018-07-24 14:54:13 limited     4            74      6.97 2018-07-24
##  2 2018-07-24 14:54:13 some        8            27      7.74 2018-07-24
##  3 2018-07-24 14:54:13 none        3            26      6.81 2018-07-24
##  4 2018-07-24 14:54:13 limited     8            80      6.21 2018-07-24
##  5 2018-07-24 14:54:13 none        7            17      7.73 2018-07-24
##  6 2018-07-24 14:54:13 some       10            37      8.73 2018-07-24
##  7 2018-07-24 14:54:13 limited    10            46      6.67 2018-07-24
##  8 2018-07-24 14:54:13 lots        2            32      8.34 2018-07-24
##  9 2018-07-24 14:54:13 lots        3            55      7.71 2018-07-24
## 10 2018-07-24 14:54:13 lots       10            55      8.57 2018-07-24
## # ... with 40 more rows, and 1 more variable: Crisis <chr>
…
Lets start by renaming variables.

names(survey) <- c("Timestamp",
                  "R_exp",
                  "Banjo",
                  "Psych_age_yrs",
                  "Sleep_hrs",
                  "Fav_day",
                  "Crisis")

# complete.cases() drops NAs
survey <- survey[complete.cases(survey),]
survey

## # A tibble: 50 x 7
##    Timestamp           R_exp   Banjo Psych_age_yrs Sleep_hrs Fav_day   
##    <dttm>              <chr>   <int>         <int>     <dbl> <date>    
##  1 2018-07-24 14:54:13 limited     4            74      6.97 2018-07-24
##  2 2018-07-24 14:54:13 some        8            27      7.74 2018-07-24
##  3 2018-07-24 14:54:13 none        3            26      6.81 2018-07-24
##  4 2018-07-24 14:54:13 limited     8            80      6.21 2018-07-24
##  5 2018-07-24 14:54:13 none        7            17      7.73 2018-07-24
##  6 2018-07-24 14:54:13 some       10            37      8.73 2018-07-24
##  7 2018-07-24 14:54:13 limited    10            46      6.67 2018-07-24
##  8 2018-07-24 14:54:13 lots        2            32      8.34 2018-07-24
##  9 2018-07-24 14:54:13 lots        3            55      7.71 2018-07-24
## 10 2018-07-24 14:54:13 lots       10            55      8.57 2018-07-24
## # ... with 40 more rows, and 1 more variable: Crisis <chr>

Now, lets make sure we have numbers where we expect them. 

survey$Sleep_hrs <- readr::parse_number(survey$Sleep_hrs)
survey

## # A tibble: 50 x 7
##    Timestamp           R_exp   Banjo Psych_age_yrs Sleep_hrs Fav_day   
##    <dttm>              <chr>   <int>         <int>     <dbl> <date>    
##  1 2018-07-24 14:54:13 limited     4            74      6.97 2018-07-24
##  2 2018-07-24 14:54:13 some        8            27      7.74 2018-07-24
##  3 2018-07-24 14:54:13 none        3            26      6.81 2018-07-24
##  4 2018-07-24 14:54:13 limited     8            80      6.21 2018-07-24
##  5 2018-07-24 14:54:13 none        7            17      7.73 2018-07-24
##  6 2018-07-24 14:54:13 some       10            37      8.73 2018-07-24
##  7 2018-07-24 14:54:13 limited    10            46      6.67 2018-07-24
##  8 2018-07-24 14:54:13 lots        2            32      8.34 2018-07-24
##  9 2018-07-24 14:54:13 lots        3            55      7.71 2018-07-24
## 10 2018-07-24 14:54:13 lots       10            55      8.57 2018-07-24
## # ... with 40 more rows, and 1 more variable: Crisis <chr>
…
